NO,UPT,ULTG,NAMA  ALAT,REGU PEMELIHARAAN,MERK,TYPE,NOMER SERI,NOMOR SERTIFIKAT,,,KALIBRASI ULANG,"TAHUN 
PEROLEHAN","KONDISI ALAT
Normal/
Rusak/
<50%/
Obsolete",ANOMALI ALAT UJI,NOMOR BERITA ACARA
11,PROBOLINGGO,BANGIL,TAHANAN KONTAK,GARDU INDUK,MEGGER,MJOLNER 600,1391021,,,2466.06.BTND.33B/16.16,MARET 2019,2014,NORMAL,PENUNJUKAN HAIL PENGUJIAN TIDAK STABIL,
28,PROBOLINGGO,BANGIL,TAHANAN PENTANAHAN,GARDU INDUK,KYORITSU,4105 A,W8234195,,,,MASUK USULAN 2019,2012,RUSAK,,
69,PROBOLINGGO,BANGIL,MULTIMETER,GARDU INDUK,FLUKE,287,29850035,,,,,,NORMAL,,
70,PROBOLINGGO,BANGIL,MULTIMETER,GARDU INDUK,SANWA,PC LINK SYSTEM,,,,,,,NORMAL,,
87,PROBOLINGGO,BANGIL,RANGING METER,JARINGAN,LEICA,DISTO D810 TOUCH,5041410231,,,,,,NORMAL,PEROLEHAN 13 APRIL 2016,
120,PROBOLINGGO,BANGIL,MULTIMETER,HAR. GI,FLUKE,101,,2017,,,,2017,Normal,PEROLEHAN 2017,
121,PROBOLINGGO,BANGIL,MULTIMETER,HAR. GI,FLUKE,287,31650146,2017,,,,2017,NORMAL,PEROLEHAN 2017,
122,PROBOLINGGO,BANGIL,TAHANAN ISOLASI,HAR. GI,KYORITSU,3125,W0431604,,,,,2016,NORMAL,PEROLEHAN 2016,
123,PROBOLINGGO,BANGIL,TAHANAN KONTAK,HAR. GI,SCOPE,HISAC SWIFT,3023.00.AD1306,2018,,,,2018,NORMAL,PEROLEHAN 2018,
124,PROBOLINGGO,BANGIL,BREAKER ANALYZER,HAR. GI,PROGRAMMA,TM1600,,,,,,,,,
125,PROBOLINGGO,BANGIL,RANGING METER,JARINGAN,LEICA,DISTRI D810,792297,,,,,2017,NORMAL,KALIBRASI PABRIKAN,
39,PROBOLINGGO,JEMBER,RATIO TEST TRANSFORMER,GARDU INDUK,VANGUARD,ATRT-03,21027,SKAL,402,I.8601.18.16.3616.260.60/2018,OKTOBER 2020,,NORMAL,,
40,PROBOLINGGO,JEMBER,BREAKER ANALYZER,GARDU INDUK,VANGUARD,CT 6500,66131,SKAL,394,I.8601.18.16.3616.260.60/2018,OKTOBER 2020,,NORMAL,,
41,PROBOLINGGO,JEMBER,LEAKAGE CURRENT MONITOR,GARDU INDUK,DOBLE,LCM 500,205031,,,,,,RUSAK,RUSAK PADA C DAN F PROBE,
42,PROBOLINGGO,JEMBER,INJECT CT TESTER,GARDU INDUK,ISA,T3000,2007/14813-6,SKAL,436,I.8601.18.16.3616.260.60/2018,OKTOBER 2020,,RUSAK,,
43,PROBOLINGGO,JEMBER,TAHANAN DINAMIK DAN BELITAN TRAFO,GARDU INDUK,VANGUARD,LTCA-10,43008,SKAL,376,I.8601.18.16.3616.260.60/2018,OKTOBER 2020,,NORMAL,,
44,PROBOLINGGO,JEMBER,TAHANAN DINAMIK DAN BELITAN TRAFO,GARDU INDUK,VANGUARD,LTCA-10,43062,,,,,,NORMAL,,
45,PROBOLINGGO,JEMBER,TAHANAN KONTAK,GARDU INDUK,VANGUARD,ATO-600,48006,SKAL,420,I.8601.18.16.3616.260.60/2018,OKTOBER 2020,,RUSAK,BOARD RUSAK,
46,PROBOLINGGO,JEMBER,TAHANAN KONTAK,GARDU INDUK,VANGUARD,ATO-600P,49037,SKAL,405,I.8601.18.16.3616.260.60/2018,OKTOBER 2020,,NORMAL,,
47,PROBOLINGGO,JEMBER,PURITY ,GARDU INDUK,DILLO,3-027-R002,1326,,,,,,OBSOLETE,,
48,PROBOLINGGO,JEMBER,DEW POINT GAS SF6,GARDU INDUK,DILLO,3-037-R001,559,,,,,,OBSOLETE,,
49,PROBOLINGGO,JEMBER,PENGINDERA CORONA,GARDU INDUK,OFIL,DAYCOR SUPERB,508P063051,,,,,,RUSAK,BOARD RUSAK,
50,PROBOLINGGO,JEMBER,TANGEN DELTA,GARDU INDUK,MEGGER,M4000,18510315,,,,,,NORMAL,SEWA KOPERASI,
51,PROBOLINGGO,JEMBER,BREAKER ANALYZER,GARDU INDUK,HATHAWAY,CBT200,AA99295,SKAL,670,I.8601.18.16.3616.260.60/2018,TIDAK TERDAPAT TRIGGER EXTERNAL,,OBSOLETE,,
52,PROBOLINGGO,JEMBER,KAPASITAS BATERAI ,GARDU INDUK,ISA,BTS100,,,,,,,OBSOLETE,,
53,PROBOLINGGO,JEMBER,BDV,GARDU INDUK,HIGH VOLTAGE,DTS 60 AF,635,SKAL,415,I.8601.18.16.3616.260.60/2018,OKTOBER 2020,,NORMAL,,
54,PROBOLINGGO,JEMBER,TAHANAN ISOLASI 5 KV,GARDU INDUK,KYORITSU,3125,W0161586,,,,,,NORMAL,,
55,PROBOLINGGO,JEMBER,TAHANAN ISOLASI 5 KV,GARDU INDUK,KYORITSU,3125,W0430893,,,,,,NORMAL,,
56,PROBOLINGGO,JEMBER,TAHANAN ISOLASI 5 KV,GARDU INDUK,KYORITSU,3125,W0416289,,,,,,NORMAL,,
57,PROBOLINGGO,JEMBER,TAHANAN ISOLASI 5 KV,GARDU INDUK,KYORITSU,3125,W0416291,SKAL,387,I.8601.18.16.3616.260.60/2018,OKTOBER 2020,,NORMAL,,
58,PROBOLINGGO,JEMBER,TAHANAN ISOLASI 5 KV,GARDU INDUK,KYORITSU,3125,W0432746,,,,,,RUSAK,,
59,PROBOLINGGO,JEMBER,TAHANAN ISOLASI 5 KV,GARDU INDUK,KYORITSU,3124,W0235610,,,,,,RUSAK,,
60,PROBOLINGGO,JEMBER,EARTH TESTER,GARDU INDUK,KYORITSU,4105A,W8230143,SKAL,384,I.8601.18.16.3616.260.60/2018,OKTOBER 2020,,NORMAL,,
61,PROBOLINGGO,JEMBER,VECTOR MULTI METER,GARDU INDUK,DTEC,CDM-330,508095,,,2468.34.BTND.33B/16.16,MARET 2019,,RUSAK,BOARD RUSAK,
62,PROBOLINGGO,JEMBER,LEAKAGE DETECTOR SF6,GARDU INDUK,DILO,R002,4430,,,,,,NORMAL,,
63,PROBOLINGGO,JEMBER,LEAKAGE DETECTOR SF6,GARDU INDUK,DILO,R002,2167,,,,,,NORMAL,,
64,PROBOLINGGO,JEMBER,LEAKAGE DETECTOR SF6,GARDU INDUK,TIF,XP-1A,91312000281,,,,,,NORMAL,,
65,PROBOLINGGO,JEMBER,DUAL DISPLAY LCR METER,GARDU INDUK,ESCORT,ELC-131D,631030020,,,,,,RUSAK,,
66,PROBOLINGGO,JEMBER,DUAL DISPLAY LCR METER,GARDU INDUK,ESCORT,ELC-131D,41005487,,,,,,RUSAK,,
67,PROBOLINGGO,JEMBER,TEMPERATURE HUMIDITY METER,GARDU INDUK,FLUKE ,FLUKE 971,2418208,,,,,,NORMAL,,
68,PROBOLINGGO,JEMBER,INSULATION TESTER,GARDU INDUK,MEGGER BRASS,MI 20 KV,M0822C,,,,,,NORMAL,,
73,PROBOLINGGO,JEMBER,TAHANAN PENTANAHAN,GARDU INDUK,MEGGER,DET47R2,101653120,,,,,,NORMAL,PENGADAAN 2017,
75,PROBOLINGGO,JEMBER,TANGEN DELTA,GARDU INDUK,MEGGER,DELTA 4110,23200917,,,,,,NORMAL,PENGADAAN 2017,
77,PROBOLINGGO,JEMBER,CB COIL TESTER,GARDU INDUK,MEGGER,B10E,1702221,,,,,,NORMAL,PENGADAAN 2017,
80,PROBOLINGGO,JEMBER,TAHANAN KONTAK,GARDU INDUK,MEGGER,MJOLNER 200,1792254,,,,,,NORMAL,PENGADAAN 2017,
82,PROBOLINGGO,JEMBER,KEVAKUMAN 20 KV,GARDU INDUK,VANGUARD,VBT-75P,HV-210005,,,,,,NORMAL,PENGADAAN 2017,
83,PROBOLINGGO,JEMBER,TEGANGAN TEMBUS MINYAK,GARDU INDUK,BAUR,DTA 100C,1701835004,,,,,,NORMAL,PENGADAAN 2017,
97,PROBOLINGGO,JEMBER,,,,,,,,,,,NORMAL,,
107,PROBOLINGGO,JEMBER,UJI RELE 1 PHASA,PROTEKSI,MULTIAMP,SR-90,966412,,,,,,RUSAK,,
108,PROBOLINGGO,JEMBER,UJI RELE 3 PHASA,PROTEKSI,OMICRON,CMC56,ED591F,,,,,,RUSAK,,
109,PROBOLINGGO,JEMBER,POWER QUALITY METER,PROTEKSI,DRANETZ,POWER VISA,PVUSCB087,SKAL,439,I.8601.18.16.3616.260.60/2018,TIDAK BISA DIKALIBRASI,,NORMAL,,
110,PROBOLINGGO,JEMBER,UJI RELE 3 PHASA,PROTEKSI,ISA,DRTS 64,2013/20081-12,SKAL,432,I.8601.18.16.3616.260.60/2018,OKTOBER 2020,,NORMAL,,
111,PROBOLINGGO,JEMBER,CLAMP DIGITAL MULTI METER,PROTEKSI,KEIHIN DENSOKKI,DCM-230B,40893,,,,,,RUSAK,ct rusak,
112,PROBOLINGGO,JEMBER,PHASE SEQUENCE,PROTEKSI,OTOWA,,,,,,,,OBSOLETE,,
113,PROBOLINGGO,JEMBER,LEAKAGE CURRENT TESTER,PROTEKSI,KYORITSU,2414,28124,,,,,,RUSAK,,
114,PROBOLINGGO,JEMBER,MULTIMETER,PROTEKSI,FLUKE,FLUKE 87,18000352,,,,,,NORMAL,,
115,PROBOLINGGO,JEMBER,MULTIMETER,PROTEKSI,FLUKE,FLUKE 87,17420378,,,,,,NORMAL,,
116,PROBOLINGGO,JEMBER,CLAMP METER,PROTEKSI,FLUKE,FLUKE 317,23940115,,,,,,NORMAL,,
118,PROBOLINGGO,JEMBER,UJI RELE 3 PHASA,PROTEKSI,ISA,DRTS 34,17/15641201,,,,,,NORMAL,PENGADAAN 2017,
119,PROBOLINGGO,JEMBER,DUMMY LOAD,PROTEKSI,ISA,BTS200,17/15531101,,,,,,NORMAL,PENGADAAN 2017,
1,PROBOLINGGO,PROBOLINGGO,MULTIMETER,GARDU INDUK,SANWA,PC5000a,????,,,,,,NORMAL,,
2,PROBOLINGGO,PROBOLINGGO,MULTIMETER,GARDU INDUK,SANWA,PC5000a,????,,,,,,NORMAL,,
3,PROBOLINGGO,PROBOLINGGO,MULTIMETER,GARDU INDUK,SANWA,PC5000a,????,,,,,,NORMAL,,
4,PROBOLINGGO,PROBOLINGGO,MULTIMETER,GARDU INDUK,SANWA,PC5000a,????,,,,,,NORMAL,,
5,PROBOLINGGO,PROBOLINGGO,MULTIMETER,GARDU INDUK,SANWA,PC5000a,????,,,,,,RUSAK,,
6,PROBOLINGGO,PROBOLINGGO,TAHANAN ISOLASI 5 KV,GARDU INDUK,KYORITSU,3125,W0418358,,,2471.08.BTND.333B/16.16,MARET 2019,,NORMAL,,
7,PROBOLINGGO,PROBOLINGGO,TAHANAN ISOLASI 5 KV,GARDU INDUK,KYORITSU,3125,W0418363,,,1360.08.BTND.171B/17.17,MASUK USULAN 2019,,NORMAL,,
8,PROBOLINGGO,PROBOLINGGO,TAHANAN ISOLASI 5 KV,GARDU INDUK,KYORITSU,3125,????,,,,,,NORMAL,,
9,PROBOLINGGO,PROBOLINGGO,TAHANAN ISOLASI 5 KV,GARDU INDUK,KYORITSU,3125,????,,,,,,NORMAL,,
10,PROBOLINGGO,PROBOLINGGO,TAHANAN ISOLASI 5 KV,GARDU INDUK,MEGABRASS,EM 4055,????,,,,,,RUSAK,,
12,PROBOLINGGO,PROBOLINGGO,TAHANAN KONTAK,GARDU INDUK,VANGUARD,ATO 600P,49035,,,1374.06.BTND.171B/17.17,MASUK USULAN 2019,,NORMAL,PENUNJUKAN HAIL PENGUJIAN TIDAK STABIL,
13,PROBOLINGGO,PROBOLINGGO,BREAKER ANALYZER,GARDU INDUK,VANGUARD,CT 6500,66210,,,2465.46.BTND.333B/16.16,MARET 2019,,NORMAL,,
14,PROBOLINGGO,PROBOLINGGO,BREAKER ANALYZER,GARDU INDUK,VANGUARD,CT 6500,66130,,,,,2014,NORMAL,,
15,PROBOLINGGO,PROBOLINGGO,TAHANAN PENTANAHAN,GARDU INDUK,KYORITSU,4105,W8234197,,,2470.07.BTND.333B/16.16,MARET 2019,,NORMAL,,
16,PROBOLINGGO,PROBOLINGGO,TAHANAN PENTANAHAN,GARDU INDUK,KYORITSU,4105,????,,,,,,NORMAL,,
17,PROBOLINGGO,PROBOLINGGO,TANGEN DELTA,GARDU INDUK,MEGGER,DELTA 4000,????,,,,,,<50%,KERUSAKAN PADA KABEL HV 12KV,
18,PROBOLINGGO,PROBOLINGGO,KEVAKUMAN 20 KV,GARDU INDUK,VANGUARD,VBT 80P,54115,,,,,,NORMAL,PEROLEHAN TAHUN 2013,
19,PROBOLINGGO,PROBOLINGGO,TAHANAN DINAMIK DAN BELITAN TRAFO,GARDU INDUK,VANGUARD,LTCA-10,43007,,,,,,<50%,KERUSAKAN PADA DISPLAY,
20,PROBOLINGGO,PROBOLINGGO,RATIO TEST TRANSFORMER,GARDU INDUK,VANGUARD,ATRT-03AS2,20128,,,1371.70.BTND.171B/17.17,MASUK USULAN 2019,,NORMAL,,
21,PROBOLINGGO,PROBOLINGGO,TEGANGAN TEMBUS MINYAK,GARDU INDUK,BAUR,DTS 90,100 H 39/40,,,1377.26.BTND.171B/17.17,MASUK USULAN 2019,,NORMAL,,
22,PROBOLINGGO,PROBOLINGGO,SF6 ANALYZER,GARDU INDUK,DILO,3-038R-R302,321,,,,,,NORMAL,,
23,PROBOLINGGO,PROBOLINGGO,LEAKAGE CURRENT MONITOR,GARDU INDUK,DOBLE,LCM500,56,,,,,,<50%,KERUSAKAN PADA KABEL CLAMP ARUS,
24,PROBOLINGGO,PROBOLINGGO,SFRA,GARDU INDUK,MEGGER ,FRAX 101,1300617,,,,,,NORMAL,PEROLEHAN TAHUN 2013,
25,PROBOLINGGO,PROBOLINGGO,HV DC TEST,GARDU INDUK,HIGH VOLTAGE,PTS-75,1716,,,2467.26.BTND.333B/16.16,MARET 2019,,NORMAL,PEROLEHAN TAHUN 2013,
26,PROBOLINGGO,PROBOLINGGO,DIRANA TEST,GARDU INDUK,OMICRON,DIRANA,CEZ55S,,,,,,NORMAL,PEROLEHAN TAHUN 2013,
27,PROBOLINGGO,PROBOLINGGO,PENGINDERA CORONA,GARDU INDUK,OFIL ,Daycor II,S08P063052,,,,,,RUSAK,DISPLAY DAN MAINBOARD RUSAK,
29,PROBOLINGGO,PROBOLINGGO,RANGING METER,GARDU INDUK,LEICA,,,,,,,,NORMAL,,
30,PROBOLINGGO,PROBOLINGGO,UJI KELEMBAPAN DAN SUHU UDARA,GARDU INDUK,AMPROBE,TH-24,????,,,,,,NORMAL,,
31,PROBOLINGGO,PROBOLINGGO,UJI KELEMBAPAN DAN SUHU UDARA,GARDU INDUK,AMPROBE,TH-24,????,,,,,,<50%,,
32,PROBOLINGGO,PROBOLINGGO,TAHANAN ISOLASI 15 KV,GARDU INDUK,MEGABRASS,MI15KVE,019028H,,,,,,RUSAK,KERUSAKAN ALAT AKIBAT INDUKSI SISTEM,
33,PROBOLINGGO,PROBOLINGGO,TAHANAN ISOLASI 5 KV,GARDU INDUK,MEGABRASS,MD5060X,M08313J,,,,,,RUSAK,KERUSAKAN PADA BATTERY DROP,
34,PROBOLINGGO,PROBOLINGGO,TAHANAN ISOLASI 20 KV,GARDU INDUK,MEGABRASS,MI20KV,OL72181,,,1361.08.BTND.171B/17.17,MASUK USULAN 2019,,NORMAL,,
35,PROBOLINGGO,PROBOLINGGO,TAHANAN PENTANAHAN,GARDU INDUK,MEGABRASS,EM4055,M08289J,,,,,,RUSAK,KERUSAKAN MAINBOARD ALAT,
36,PROBOLINGGO,PROBOLINGGO,TAHANAN PENTANAHAN,GARDU INDUK,MEGABRASS,EM4056,M08284J,,,,,,RUSAK,KERUSAKAN MAINBOARD ALAT,
37,PROBOLINGGO,PROBOLINGGO,PD 20 KV,GARDU INDUK,NDB,XDP II,213306,,,,,,NORMAL,PEROLEHAN TAHUN 2013,
38,PROBOLINGGO,PROBOLINGGO,TAHANAN KONTAK,GARDU INDUK,ETI,CRS 100,3207,,,,,,RUSAK,,
71,PROBOLINGGO,PROBOLINGGO,TAHANAN ISOLASI 5 KV,GARDU INDUK,HIOKI,IR3455,170716508,,,,,,NORMAL,PENGADAAN 2017,
72,PROBOLINGGO,PROBOLINGGO,TAHANAN PENTANAHAN,GARDU INDUK,MEGGER,DET47R2,101653122,,,,,,NORMAL,PENGADAAN 2017,
74,PROBOLINGGO,PROBOLINGGO,SF6 ANALYZER,GARDU INDUK,DILO,SF6 MULTIANALYZER,2000008063,,,,,,NORMAL,PENGADAAN 2017,
76,PROBOLINGGO,PROBOLINGGO,TANGEN DELTA,GARDU INDUK,MEGGER,DELTA 4110,23240917,,,,,,NORMAL,PENGADAAN 2017,
78,PROBOLINGGO,PROBOLINGGO,CB COIL TESTER,GARDU INDUK,MEGGER,B10E,1702226,,,,,,NORMAL,PENGADAAN 2017,
79,PROBOLINGGO,PROBOLINGGO,TAHANAN KONTAK,GARDU INDUK,MEGGER,MJOLNER 200,1792256,,,,,,NORMAL,PENGADAAN 2017,
81,PROBOLINGGO,PROBOLINGGO,BREAKER ANALYZER,GARDU INDUK,VANGUARD,CT-8000 S3,CT-140099,,,,,,NORMAL,PENGADAAN 2017,
84,PROBOLINGGO,PROBOLINGGO,LEAKAGE CURRENT MONIT0R,GARDU INDUK,DOBLE,LCM500,205266,,,,,,NORMAL,PENGADAAN 2017,
85,PROBOLINGGO,PROBOLINGGO,SF6 LEAKAGE DETECTOR,GARDU INDUK,DILO,3-033-R200 SF6 LEAK SPY,2000007949,,,,,,NORMAL,PENGADAAN 2017,
86,PROBOLINGGO,PROBOLINGGO,TAHANAN PENTANAHAN,JARINGAN,KYORITSU,4105,W8234194,,,1358.07.BTND.171B/17.17,MASUK USULAN 2019,,NORMAL,PEROLEHAN TAHUN 2015,
88,PROBOLINGGO,PROBOLINGGO,THERMOVISION,JARINGAN,FLIR,T620,55910214,,,1378.38.BTND.171B/17.17,MASUK USULAN 2019,,NORMAL,PENGADAAN 2016,
89,PROBOLINGGO,PROBOLINGGO,GROUND FAULT LOCATOR,PROTEKSI,GROUSER,GFL,2050804,,,,,,RUSAK,,
90,PROBOLINGGO,PROBOLINGGO,GPS SYNCRONIZER,PROTEKSI,ISA,13031-10,2005/13031-10,,,,,,RUSAK,,
91,PROBOLINGGO,PROBOLINGGO,GPS SYNCRONIZER,PROTEKSI,ISA,13031-10,2003/11480-7,,,,,,RUSAK,,
92,PROBOLINGGO,PROBOLINGGO,UJI RELE 1 PHASA,PROTEKSI,PROGRAMMA,SVERKER 650,16050,,,,,,NORMAL,,
93,PROBOLINGGO,PROBOLINGGO,UJI RELE 3 PHASA,PROTEKSI,KEIHIN DENSOKKI,TPR-22 CV,11291,,,,,,OBSOLETE,,
94,PROBOLINGGO,PROBOLINGGO,UJI RELE 3 PHASA,PROTEKSI,ISA,DRTS-3,2000/9858,,,2464.24.BTND.333B/16.16,MARET 2019,,<50%,TERDAPAT KERUSAKAN PADA MAINBOARD,
95,PROBOLINGGO,PROBOLINGGO,UJI RELE 3 PHASA,PROTEKSI,ISA,DRTS-6,2005/13031-1,,,1436.24.BTND.171B/17.17,MASUK USULAN 2019,,<50%,INPUT TEGANGAN TIDAK STABIL MENGAKIBATKAN KERUSAKAN PADA MAINBORD,
96,PROBOLINGGO,PROBOLINGGO,UJI RELE 3 PHASA,PROTEKSI,PONOVO,PW400,10127111101,,,1469.24.BTND.171B/17.17,MASUK USULAN 2019,,NORMAL,,
98,PROBOLINGGO,PROBOLINGGO,CT ANALYZER,PROTEKSI,OMICRON,DB 3384,KB 739F,,,1372.25.BTND.171B/17.17,MASUK USULAN 2019,,NORMAL,PEROLEHAN TAHUN 2013,
99,PROBOLINGGO,PROBOLINGGO,INJECT CT TESTER,PROTEKSI,MEGGER,ODEN AT 1S,1302216,,,,,,NORMAL,,
100,PROBOLINGGO,PROBOLINGGO,HV DC TEST,PROTEKSI,HIGH VOLTAGE,PTS75,1716,,,,,,NORMAL,,
101,PROBOLINGGO,PROBOLINGGO,UJI RELE 1 PHASA,PROTEKSI,MEGGER,SVERKER 780,1301221,,,,,,NORMAL,,
102,PROBOLINGGO,PROBOLINGGO,INJECT CT TESTER,PROTEKSI,ISA,T-3000,2008/14941,,,2469.25.BTND.333B/16.16,MARET 2019,,<50%,KERUSAKAN PADA KABEL UJI DAN SOCKET ALAT,
103,PROBOLINGGO,PROBOLINGGO,BATTERY TESTER,PROTEKSI,HIOKI,BATTERY HITESTER 3554,120200303,,,,,,NORMAL,PEROLEHAN TAHUN 2012,
104,PROBOLINGGO,PROBOLINGGO,BATTERY TESTER,PROTEKSI,HIOKI,BATTERY HITESTER 3555,120200364,,,,,,NORMAL,PEROLEHAN TAHUN 2012,
105,PROBOLINGGO,PROBOLINGGO,VEKTOR METER,PROTEKSI,DENSOKU TECHNO,CDM -330,508095,,,,,,<50%,KABEL RUSAK,
106,PROBOLINGGO,PROBOLINGGO,VEKTOR METER,PROTEKSI,DENSOKU TECHNO,CDM -330,1005112,,,,,,RUSAK,,
117,PROBOLINGGO,PROBOLINGGO,UJI RELE 3 PHASA,PROTEKSI,ISA,DRTS 34,17/15640801,,,,,,NORMAL,PENGADAAN 2017,
126,PROBOLINGGO,PROBOLINGGO,TAHANAN ISOLASI 5 KV,HAR. GI,MEGABRASS,5060X,28982,,,1359.08.BTND.171B/17.17,MASUK USULAN 2019,,NORMAL,,
127,PROBOLINGGO,PROBOLINGGO,VOLTAGE DETECTOR,HAR. GI,CHUBUSEIKI,CSDV2-1,,,,1430.26.BTND.171B/17.17,MASUK USULAN 2019,,NORMAL,,
128,PROBOLINGGO,PROBOLINGGO,INJECT CT TESTER,HAR. PROTEKSI,ISA,T-3000,2007/14813-3,,,1442.24.BTND.171B/17.17,MASUK USULAN 2019,,NORMAL,,
